<svg width="48" height="48" viewBox="0 0 48 48" fill="none" xmlns="http://www.w3.org/2000/svg">
<path fill-rule="evenodd" clip-rule="evenodd" d="M23.7071 25.1213L14.4142 34.4142L13 33L22.2929 23.7071L13 14.4142L14.4142 13L23.7071 22.2929L33 13L34.4142 14.4142L25.1213 23.7071L34.4142 33L33 34.4142L23.7071 25.1213Z" fill="white"/>
</svg>
