<svg width="347" height="56" viewBox="0 0 347 56" fill="none" xmlns="http://www.w3.org/2000/svg">
<path fill-rule="evenodd" clip-rule="evenodd" d="M317.465 26.9738V22.6706L347.001 22.6706V26.9738H317.465ZM340.171 49.6415L315.457 35.2959L317.595 31.5662L342.31 45.9118L340.171 49.6415ZM340.167 0.00292969L342.31 3.73269L317.59 18.0783L315.452 14.3485L340.167 0.00292969ZM41.833 12.6285H40.3433C28.5745 12.6285 25.8594 19.6832 25.8594 24.6129V25.5911C25.8594 30.4581 28.6082 37.7056 40.3433 37.7056H41.833C53.2798 37.7056 56.0286 31.8941 56.0286 27.7788V27.5812H48.0754C47.9793 28.2366 47.3017 31.5327 41.1218 31.5327C35.432 31.5327 33.9135 27.9089 33.9135 25.2634V24.8393C33.9135 22.03 35.4032 18.7339 41.093 18.7339C47.2681 18.7339 47.9793 22.0011 48.0754 22.6179H56.0286V22.4588C56.0286 18.0834 53.2173 12.6285 41.833 12.6285ZM22.5668 27.914H7.66484V31.6678H23.2492V37.3203H0V13.019H23.0522V18.604H7.66484V22.1314H22.5668V27.914ZM6.99855 45.7266C1.01685 45.7266 0.34375 48.7111 0.34375 50.4002V50.7812C0.34375 52.4449 1.01685 55.5056 6.99855 55.5056H7.54465C13.501 55.5056 14.1868 52.4449 14.1868 50.7812V50.4002C14.1868 48.7111 13.4883 45.7266 7.54465 45.7266H6.99855ZM11.0879 50.6669C11.0879 51.7591 10.4403 53.2069 7.26525 53.2069C4.06485 53.2069 3.44255 51.721 3.44255 50.6415V50.4891C3.44255 49.4096 4.01405 48.0126 7.26525 48.0126C10.4657 48.0126 11.0879 49.4096 11.0879 50.4891V50.6669ZM15.1844 45.8917V55.3405H18.1054V49.0794L24.5189 55.3405H27.4399V45.8917H24.5189V51.8353L18.4864 45.8917H15.1844ZM28.8255 55.3405V45.8917H31.7846V52.991H38.3505V55.3405H28.8255ZM42.3375 45.8917H39.3784V55.3405H42.3375V45.8917ZM43.7177 55.3405V45.8917H47.0197L53.0522 51.8353V45.8917H55.9732V55.3405H53.0522L46.6387 49.0794V55.3405H43.7177ZM57.3588 45.8917V55.3405H67.4426V53.1434H60.2798V51.594H67.1505V49.435H60.2798V48.038H67.3156V45.8917H57.3588ZM77.5168 51.4797H81.0982L79.2694 47.9364L77.5168 51.4797ZM86.2671 55.3405H83.0794L82.1904 53.6133H76.4627L75.6118 55.3405H72.6019L77.3771 45.8917H81.2125L86.2671 55.3405ZM92.4314 55.5056C97.8288 55.5056 98.7686 52.864 98.7686 51.6702V51.5305H95.6318L95.6263 51.5466L95.6187 51.5705C95.5194 51.885 95.1018 53.2069 92.19 53.2069C89.4342 53.2069 88.6849 51.7337 88.6849 50.6161V50.4637C88.6849 49.2826 89.3326 48.0126 92.1646 48.0126C95.1471 48.0126 95.539 49.3204 95.6179 49.5835L95.619 49.5874H98.756V49.4477C98.756 48.3428 97.9051 45.7266 92.4314 45.7266H91.9107C86.3227 45.7266 85.5861 48.6857 85.5861 50.4002V50.7685C85.5861 52.4449 86.437 55.5056 91.9107 55.5056H92.4314ZM103.112 51.4797H106.694L104.865 47.9364L103.112 51.4797ZM111.863 55.3405H108.675L107.786 53.6133H102.058L101.207 55.3405H98.1973L102.973 45.8917H106.808L111.863 55.3405ZM112.319 55.3405H118.593C124.117 55.3405 125.248 52.7751 125.248 50.7431V50.3621C125.248 48.2412 124.054 45.8917 118.58 45.8917H112.319V55.3405ZM115.278 48.1269H118.352C121.755 48.1269 122.149 49.5874 122.149 50.5526V50.6288C122.149 51.594 121.704 53.0672 118.352 53.0672H115.278V48.1269ZM136.28 55.3405H126.196V45.8917H136.153V48.038H129.117V49.435H135.987V51.594H129.117V53.1434H136.28V55.3405ZM137.443 55.3405H140.288V48.8L144.009 55.3405H145.597L149.318 48.8V55.3405H152.239V45.8917H148.187L144.911 51.7718L141.647 45.8917H137.443V55.3405ZM160.637 55.3405H157.678V51.6829L152.623 45.8917H156.294L159.227 49.3715L162.212 45.8917H165.552L160.637 51.6829V55.3405ZM73.1978 12.6285H74.6539C86.6821 12.6285 89.6231 19.4519 89.6231 24.6129V25.5911C89.6231 30.6846 86.7158 37.7056 74.6539 37.7056H73.1978C61.1695 37.7056 58.2285 30.6846 58.2285 25.5911V24.6129C58.2285 19.4519 61.1695 12.6285 73.1978 12.6285ZM73.9426 31.5712C80.3436 31.5712 81.5739 27.9475 81.5739 25.3019V24.8779C81.5739 22.2324 80.3436 18.705 73.9426 18.705C67.508 18.705 66.2778 22.2324 66.2778 24.8779V25.3019C66.2778 27.9475 67.6378 31.5712 73.9426 31.5712ZM109.928 28.1404L102.849 13.019H92.373V37.3203H99.8072V21.8037L106.987 37.3203H112.355L119.563 21.8037V37.3203H127.132V13.019H117.17L109.928 28.1404ZM149.209 28.1404L156.451 13.019H166.413V37.3203H158.844V21.8037L151.636 37.3203H146.268L139.088 21.8037V37.3203H131.654V13.019H142.13L149.209 28.1404ZM195.667 13.0198H169.025V19.159H178.497V37.3211H186.191V19.159H195.667V13.0198ZM192.654 37.3149L203.582 13.0184H213.765L225.048 37.3149H216.802L214.928 33.1033H202.222L200.382 37.3149H192.654ZM208.527 18.6709L204.582 27.7495H212.568L208.527 18.6709ZM234.747 13.0184H227.02V37.3197H249.298V30.983H234.747V13.0184ZM270.173 13.0184H279.549L267.357 24.0583L280.226 37.3197H270.332L259.601 26.1834V37.3197H251.902V13.0184H259.601V22.7187L270.173 13.0184ZM295.676 22.0343L292.283 21.9379C288.631 21.8415 287.824 20.9597 287.824 19.8466C287.824 18.6708 288.665 17.8564 292.769 17.8564H293.062C297.363 17.8564 297.978 19.3261 298.137 20.3381H306.349V20.0779C306.349 16.6806 304.701 12.6954 293.576 12.6954H292.346C282.096 12.6954 279.77 15.9626 279.77 19.9767V20.2706C279.77 24.0245 282.197 27.2579 290.602 27.5229L293.898 27.6193C297.877 27.7157 298.617 28.5975 298.617 29.8745C298.617 31.084 298.002 32.4237 293.317 32.4237H293.124C288.338 32.4237 287.92 30.2696 287.824 29.2577H279.482V29.5516C279.482 32.655 280.774 37.7485 292.836 37.7485H293.711C305.09 37.7485 306.772 33.4067 306.772 29.648V29.2529C306.763 25.1376 304.629 22.2945 295.676 22.0343Z" fill="white"/>
</svg>
