<svg width="60" height="60" viewBox="0 0 60 60" fill="none" xmlns="http://www.w3.org/2000/svg">
<path fill-rule="evenodd" clip-rule="evenodd" d="M18 22H42V24H18V22ZM18 29H42V31H18V29ZM42 36H18V38H42V36Z" fill="white"/>
</svg>
